8d58f537e6d3495574db156f2621e107cf7a8df6adb237ab3db7d8b849d8cc49	flag01.txt
9581319a63400b8b819f295f18e6663ad9c4c84832ad78d428956647497376df	flag02.txt
c3f2f1ad87df3340b8e35049383d58b98343de032d3176d19d2dafd31bd87b8d	flag03.txt
6ea849e7d157af08a89ac7c363182febc814cc88b14977612141594aabfc7562	flag04.txt
9396eba4798028065f488ee209a32f77df6dcaec5fdcb162375be284d640c711	flag05.txt
994c5e76136e7380b510b272d0839c86b74c78e52676d22e367ee47c4a8ebb11	flag06.txt
12580b9bfd46f8aff1bd4303c711f779cc5d8371a2d5bc99a51841d334f050e0	flag07.txt
e39d9959edca3448b73d220b0e7e750ccc83c9a8180a87fd2f3f3ee72770822c	flag08.txt
ffe6be2a8aa1cc94dece2c25f7269c5b9212e87fa2c4a6891873421bed12e093	flag09.txt
883b6b524ba1efd547664f4b9e25ab0907ddd24d1e4e91f2e06f7ca9da6e266d	flag10.txt
