4980d9490c4af440a68005a4dfb383c77a0cee100f51f74ec8033647836045b8	flag01.txt
eb12d971783bc1cc3e485cbd081715f53b352bf0d65246e9bc450f153f08c913	flag02.txt
af326ac42d2295bdb4048c63c08bfee60497ffdcc9aff5463cac459779be79a3	flag03.txt
2ccfee9cb4bc15eb6b6d429f341dd448f7d966749b28dc958b3f9b9dc8498fb9	flag04.txt
fcbc35ffa5123618ec3f1fabc502d1cf43c16c706fc93efd31f1b92e859ab93d	flag05.txt
ca861ef31d918649d44e2e457fa2d11bcff3be2a27fb6e040e11d0e591444c66	flag06.txt
df808b774fc05e68837a4f23b17b49c5d5eae96a61fd9a46790ed4c69c1ce0bc	flag07.txt
bc3d8505be1da15da5edaf21ca90c8b7dad422f9fc5dc555f07884e62a6616ce	flag08.txt
befa593e3574a9da10154b704d22b9fb9981b8da2e1a1579b8a245fb164cb200	flag09.txt
8749dde5769a5819e62764a33760e8a12270a257628a19589aa6820fad705260	flag10.txt
